%!PS-Adobe-3.0 EPSF-3.0
%%Creator: Adobe Illustrator by AutoTrace version 0.27
%%Title: 
%%CreationDate: Wed Jun 13 16:33:45 2001
%%BoundingBox: 0 0 276 261
%%DocumentData: Clean7Bit
%%EndComments
%%BeginProlog
/bd { bind def } bind def
/incompound false def
/m { moveto } bd
/l { lineto } bd
/c { curveto } bd
/F { incompound not {fill} if } bd
/f { closepath F } bd
/S { stroke } bd
/*u { /incompound true def } bd
/*U { /incompound false def f} bd
/k { setcmykcolor } bd
/K { k } bd
%%EndProlog
%%BeginSetup
%%EndSetup
0.000000 0.000000 0.000000 0.000000 k
*u
1 260.972 m
0 254 l
0 234 l
0 155 l
0 41 l
0 12 l
0 5 l
1 2 l
5 1 l
15 1 l
55 1 l
215 1 l
259 1 l
269.995 1 l
274.972 2 l
276 9 l
276 29 l
276 108 l
276 222 l
276 251 l
275.941 257.941 l
274.972 260.972 l
269.995 261.995 l
259 262 l
215 262 l
55 262 l
15 262 l
5 261.981 l
1 260.972 l
f
*U
0.000000 0.000000 0.000000 0.996078 k
*u
62 256.572 m
59.329 256.189  56.589 255.797  54 255  c 
49.860 253.786  45.859 251.831  42 249.913  c 
36.931 247.392  32.273 244.544  28.184 240.572  c 
26 238.584  24.478 236.281  22.780 233.999  c 
18 227.601  14.239 220.735  12 213  c 
11.355 210  11 207  10.834 204  c 
10.620 201.997  10.205 200  10 198  c 
10 195.340  10.493 192.648  10.706 190  c 
11 185.626  11 181.255  12.301 177  c 
13.452 172.975  15.716 169.462  18 166  c 
20 162.776  22.306 159.557  24.596 156.443  c 
29.576 149.669  36 145.493  44 142.692  c 
46.632 141.752  49.283 140.983  51.981 140.267  c 
53.645 139.825  55.617 139.520  56.302 137.683  c 
57.760 133.780  53.582 130.706  52 127.715  c 
51 125.884  51.217 123.938  50.687 122  c 
50.170 120  49.222 118.718  47.867 117.325  c 
46.541 115.960  44.904 114.928  43.649 113.486  c 
42.489 112  41.741 110.647  41 109  c 
40.743 107.972  40.410 106.598  40.789 105.514  c 
41.642 103  44.983 103.326  47 103.545  c 
50 103.987 l
51.653 104  53.397 104  54.985 104.626  c 
56.910 105.573 l
59 107  62.550 110.557  64.976 107.417  c 
66.457 105.500  65.995 102.255  66 100  c 
66 94.403  65.493 88.532  66.464 83  c 
68 73.452  71.237 63.626  76.514 55.424  c 
78 52.944  79.944 50.482  81.880 48.258  c 
82.997 46.977  84.284 45.856  85.372 44.549  c 
86.813 42.816  88.235 40.901  88.443 38.600  c 
88.500 37.972  87.853 35.945  88.728 35.615  c 
89.664 35.262  90.574 36.924  91 37.442  c 
91 37.559  91.642 38.254  91.860 37.794  c 
92 37.259  91.876 36.415  91.796 35.883  c 
91.605 34.620  91.354 33.455  91.423 32.167  c 
91.456 31.540  91.816 30.284  92.605 30.188  c 
93.460 30  93.420 32.549  93.525 33  c 
93.749 34  94.312 35  94.317 36  c 
94.326 38  93.837 39.385  92.757 40.961  c 
91.403 42.935  89.553 44.587  87.870 46.271  c 
85 49  82.260 51.855  79.913 55  c 
76.349 59.872  73.871 65.356  71.929 71  c 
70.369 75.533  68.979 80.239  68.300 85  c 
67.511 90.538  67.971 96.417  68 102  c 
68 104.945  67.832 108.256  69.742 110.722  c 
71.506 113.000  74.410 113.758  77 114.670  c 
78.968 115.363  80.873 116  82.812 116.928  c 
83.287 117  84 117.555  84.688 117.285  c 
85 116.458 l
85.245 115.301  85.229 114  85.406 112.992  c 
85.717 110.957  86.376 109  86.197 107  c 
85.998 104.671  84.897 102.528  85.638 100.170  c 
86.353 97.894  88.306 96.232  89 93.961  c 
89.911 91.703  89.448 88.528  91 86.607  c 
92 85.368  93.456 85.385  94.907 85.196  c 
95.579 85  96.391 85.176  96.946 84.688  c 
98 83.756  97.404 81.697  98 80.504  c 
99.258 78.680  101.927 78.432  102.853 76.491  c 
103.549 75  102.751 73.450  102.491 71.995  c 
102 69.617  102 67.474  103.564 65.455  c 
104.396 64.338  105.590 63.497  106.595 62.549  c 
108 61.187  109.385 59.632  111 58.487  c 
111.489 58  113.846 56.487  114.373 57.623  c 
114 58.597 l
113.393 59.537  112.500 60.302  111.697 61.173  c 
111.560 61.321  110.693 62.167  110.885 62.516  c 
111 62.856  112.174 62.171  112.242 62  c 
113.628 61.267  115 60.273  115.958 58.790  c 
117.362 56.193  115.672 54.272  114.526 52  c 
113 49.259  112.479 46.290  114.589 43.714  c 
115.236 42.923  116 42.292  116.889 41.639  c 
118.552 40.239  120 38.833  122 37.799  c 
123.732 36.908  125.869 36.452  126.878 34.688  c 
128.505 31.841  125.948 29.572  124 27.745  c 
122.492 26.184  121.438 25  120.681 22.921  c 
120.623 21 l
121.219 19.300 l
122.437 17.689 l
123 16.923  124 16.246  124.966 15.797  c 
125.260 15.649  127.244 14.746  127.392 15.661  c 
127.637 17.179  126.187 18.467  126.322 20  c 
126.599 23.295  130.334 24.978  131.992 27.459  c 
132.757 28.603  133.257 31.809  135 31.794  c 
135.797 31.788  136.531 31.187  136.942 30.623  c 
138.204 28.893  138.863 27  138.527 25  c 
137.929 21  135.627 18  136.643 14  c 
136.909 12.953  137.641 12  138.319 11.279  c 
138.992 10.465  140 9.808  140.995 9.376  c 
141.765 9  142.679 8.760  143.534 8.890  c 
144.399 9  144.591 9.627  144 10.283  c 
142.654 12  140.288 12.686  139.323 15  c 
138.971 15.909  138.574 18.937  140.245 18.944  c 
140.879 18.947  141.298 18  141.599 17.722  c 
142.207 16.889  142.720 16  143.414 15.250  c 
144.618 13.908  146 12.874  147.406 11.635  c 
149.643 9.506  151.440 7.181  154.173 5.624  c 
155.334 4.962  157.666 3.478  159 4.169  c 
159.628 4.438  159.357 5  159 5.363  c 
158.512 6  157.653 6.468  156.923 6.946  c 
153.725 9  150.575 11  149.368 14.905  c 
149 15.565  148.632 17.490  149.328 18  c 
149.761 18.444  150.266 16.839  150.319 16.722  c 
151 15.171  151.670 13.684  152.804 12.380  c 
154 10.897  155.789 9.676  157.662 9  c 
158.551 8.765  159.588 9  160.416 8.555  c 
161.333 8  161.929 7  162.779 6.512  c 
164.543 5.272  166.619 4.395  168.836 4.589  c 
169.272 4.627  171.481 5  170.654 6  c 
170.238 6.504  169.391 6.485  168.842 6.536  c 
167.656 6.647  166 6.465  165 7.232  c 
164.475 7.736  165 8.738  164.752 9.423  c 
164 10.489  163 11  162.583 12.299  c 
160.828 16.633  162.470 22.443  165.394 25.826  c 
167.786 28.594  171 30.407  173.996 32.428  c 
176.557 34  179 36  180.257 39  c 
181.254 41.590  180.865 44.391  180.244 46.996  c 
179.570 49.825  178.428 52.371  180.242 55  c 
182 57.627  184.991 58.840  188 59.201  c 
190.803 59.537  193.389 59  195.566 61.322  c 
197.583 63.373  197.999 66.250  197.805 68.995  c 
197.692 70.597  196.853 72.628  197.538 74.186  c 
198 75.472  199.639 76  200.730 76.861  c 
203 78.508  206.186 80.711  206.208 84  c 
206.233 87.909  200.672 89.912  202.176 93.975  c 
203 96.218  205.304 97.711  206.965 99.285  c 
209.557 101.744  211.977 104.395  212.721 108  c 
213.528 111.903  212.917 116.349  211.366 119.981  c 
210.451 122  209.309 124  206.892 124.664  c 
205.235 125  203.619 124.634  202 124.309  c 
200.460 123.999  198.838 123.370  197.318 124  c 
194.935 125.389  195 128.731  194.704 131  c 
194 133.991 l
193.968 134.850  193.184 136.991  193.877 137.794  c 
194.405 138.406  195.517 137  195.808 136.812  c 
198 134.779  200 133.340  203 132.233  c 
205.292 131.341  207.673 130.713  210 129.925  c 
212.975 128.918  215.873 127.762  219 127.301  c 
221.316 126.960  223.666 126.999  226 127  c 
228.769 127  231.923 126.690  234.280 128.434  c 
236.367 129.977  237.315 132.409  237.281 134.937  c 
237.270 135.754  236.919 137  236 137.393  c 
235.576 137.633  235 137.202  234.689 137  c 
233.851 136.602  233.213 136.325  232.355 136.916  c 
230.290 138.336  229.361 141.816  228.411 144  c 
227.690 145.660  225.362 149.240  226.877 150.973  c 
227.811 152  229.743 151.954  231 152  c 
234 152.674  237 153.470  240 154.465  c 
246.334 156.625  251.786 161.288  256.242 166.170  c 
259.729 169.989  261.982 174.279  263.999 179  c 
265.400 182.278  266.717 185.481  267.381 189  c 
268 192.328  267.850 195.649  268.170 199  c 
268.426 201.683  268.971 204.292  268.971 207  c 
268.971 210  268.301 212.982  268 216  c 
267.902 218.682  268 221.357  267.471 224  c 
267 226  266 228  265.424 230  c 
264 233.407  263 236.917  261 240  c 
257.200 245.949  251.365 250.575  245 253.525  c 
243 254.422  241 255.264  239 255.660  c 
236.385 256  233.647 256  231 256  c 
227.227 255.995  223.614 255.909  220 254.700  c 
215.626 253.237  211.205 251.417  207 249.522  c 
204.692 248.482  202.471 247.188  200 246.557  c 
196.245 245.598  192.805 246.528  189 246.656  c 
187.557 246.707  185.757 246.578  185.542 244.721  c 
185.303 242.651  187 240.661  188.533 239.482  c 
192.564 236.308  198 236  203 236  c 
206.965 235.982  211 236.294  215 235.816  c 
219.176 235.309  223.563 233.696  226.960 231.200  c 
229.918 229  231.925 226  233.792 223  c 
236.697 218.167  238.921 212.733  238.921 207  c 
238.921 203.937  238 200.943  237.370 198  c 
236.196 193.499  234.455 189.402  230.906 186.228  c 
229.789 185.229  228.457 184.192  226.999 183.746  c 
221.285 181.997  215.591 184.980  211.754 189  c 
207.169 194  203.673 199.835  199.192 204.826  c 
197 207.228  194.527 209.220  191.996 211.207  c 
185.613 216.216  178 221  169.715 221.841  c 
165.782 222.193  161.689 222.181  158 220.637  c 
154.303 219  150.500 215.416  146.289 215.527  c 
143.986 215.588  142.321 217.306  140.561 218.566  c 
138.497 220  136.353 221.282  133.999 222.243  c 
122.478 226.947  109.501 225.527  99 218.896  c 
93.577 215.471  89 210.931  85 205.961  c 
82.689 203  80.692 199.951  78.346 197  c 
74.182 192  69.459 187  64 183.360  c 
61.379 181.594  58.285 179.430  55 179.347  c 
48.274 179.178  43.370 187.186  42.329 193  c 
41.918 195.300  42 197.674  42 200  c 
41.994 205.199  42 210.174  44.352 214.996  c 
46.884 220.560  51.216 225.200  56 228.873  c 
58.852 231  61.755 233  65 234.673  c 
68.259 236.206  71.462 236.742  75 237  c 
77.368 237.430  79.611 237.746  82 237.536  c 
91 236.731  99.932 234.908  108.996 237.559  c 
112.286 238.522  116.470 240  117.288 243.867  c 
117.465 244.695  117.390 245.939  116.377 246.227  c 
114.620 246.726  112.790 246  110.999 246.197  c 
108.801 246.296  106.949 247  105 248  c 
101.304 249.846  97.865 252.302  94 253.755  c 
86.939 256.411  79.464 257  72 257  c 
68.649 257  65.325 257  62 256.572  c 
f
*U
0.000000 0.000000 0.000000 0.000000 k
*u
61 254.560 m
37 244.644 l
28.300 237.826 l
19 224 l
13.514 209 l
12.718 203 l
13 196 l
16 195.630 l
22.248 195.879 l
20.842 196.894 l
19 197 l
17.613 197.473 l
18 200 l
23.721 202.220 l
25.213 203.561 l
24.297 204.417 l
20.291 204.425 l
19 205 l
20.296 205.742 l
23.795 206 l
25.369 206.725 l
24.535 207.719 l
21.291 208.955 l
20.198 210.261 l
21.184 210.647 l
23.412 210.246 l
26.348 208.978 l
27 210.606 l
27.870 213.593 l
33 214.654 l
33.829 216 l
36 217.309 l
36.611 219 l
36.766 223.731 l
33.971 226.225 l
31.546 228 l
30.782 229.377 l
32.287 229 l
36.795 226.924 l
38.423 226.870 l
37.504 228.877 l
35.613 230.275 l
33.353 231.731 l
36.638 236.651 l
37.755 238.860 l
40.255 237.508 l
47.435 230 l
49.779 227.332 l
51.438 228 l
54.550 230.666 l
55.408 232.391 l
52.641 234.588 l
47 238.941 l
44.465 240.498 l
45.333 237.941 l
49.690 233 l
49.893 231.641 l
48.231 232.577 l
45.192 235.962 l
42.748 238.529 l
41.192 239.877 l
40 240.951 l
44.301 243.833 l
46.419 244.224 l
45.726 246.590 l
47.624 247.601 l
51.186 248 l
54.184 247.901 l
56 250.568 l
61 250.978 l
68.424 252.961 l
75 252.671 l
86.910 251 l
93.611 248 l
103.549 243 l
104.246 240.795 l
103.250 238.825 l
105.967 238.860 l
108.327 241.371 l
110.626 240.623 l
114.824 243.176 l
112.833 244.295 l
108.999 244.252 l
103 246.468 l
93 251.931 l
72 255 l
61 254.560 l
f
225 253.482 m
223.644 253.195  222.319 252.760  221 252.340  c 
219.475 251.853  217.916 251.419  216.466 250.730  c 
216.263 250.634  215.388 250.184  215.631 249.765  c 
215.885 249.326  216.843 249.427  217.207 249.454  c 
218.512 249.552  219.739 250  220.996 250.326  c 
222.200 250.632  223.460 251  224.726 250.957  c 
225.835 250.845  226.908 250.274  228 250.406  c 
229 250.530  230 251  231 251.301  c 
232.438 251.520  233.690 251.326  235 251  c 
236.657 250.806  238.319 250.409  239.961 250  c 
240.918 249.833  242 249.645  242.856 248.950  c 
243.483 248.370  242.640 247.317  243.292 246.918  c 
244 246.393  245.421 246.825  246.363 246.492  c 
247.418 246  248.308 244  249.446 244.251  c 
251 244.549  250.793 246.464  250 247.432  c 
248.958 249  246.756 250  244.996 250.826  c 
238.787 253.613  231.736 254.908  225 253.482  c 
f
73.181 249.398 m
73.486 247.602 l
73.181 249.398 l
f
76.745 249.452 m
76.965 248 l
76.745 249.452 l
f
57.965 247.471 m
58.435 246.529 l
57.965 247.471 l
f
70.205 247.653 m
70.295 247.347 l
70.205 247.653 l
f
210.544 248 m
209.647 247.437  210.623 246.961  211.251 247.549  c 
211.896 248  211 248.342  210.544 248  c 
f
232.731 246.756 m
233 245.554 l
235.269 245.244 l
234.847 246.446 l
232.731 246.756 l
f
240 247.177 m
240 247  240.169 247.315  240 247.177  c 
f
64.321 245.369 m
63.553 243.794 l
63.329 240.167 l
64 238.207 l
64.779 239.377 l
65.277 243.794 l
64.321 245.369 l
f
92 245.370 m
91.419 243.799 l
91.535 239.688 l
93.601 238.645 l
93.946 239.544 l
93 243.901 l
92 245.370 l
f
85.284 244.410 m
84.887 240.655 l
86 239.957 l
86.775 243.386 l
85.284 244.410 l
f
222.863 244.597 m
220 240.167 l
220.444 238.630 l
221 239.388 l
223.930 241.343 l
224.510 239.293 l
226.831 238.245 l
228.860 236 l
229.839 233 l
230.656 234.373 l
230.436 237.985 l
228.935 242 l
226 243.766 l
222.863 244.597 l
f
226.494 245 m
226.462 244.981  226.511 245  226.494 245  c 
f
52.437 243.653 m
52.563 243.347 l
52.437 243.653 l
f
76 244.180 m
76.842 243.820 l
76 244.180 l
f
188.306 244 m
189.592 241.505 l
195.794 241.429 l
197.369 242.251 l
195.793 242.961 l
190.167 244 l
188.306 244 l
f
202 244.216 m
202.600 244 l
202 244.216 l
f
214.181 243.398 m
214.486 241.602 l
214.181 243.398 l
f
253.825 243.593 m
251.567 242.479 l
247.205 240.466 l
245.631 238.593 l
249 238.900 l
252.906 239.898 l
254.657 239.264 l
256 237.833 l
258.541 231.589 l
257.580 229.386 l
260.236 226.951 l
258.363 226 l
257.628 225.282 l
260.966 224.296 l
261.932 222.540 l
262 221.307 l
257.921 219.668 l
258.653 218.812 l
261.876 218.451 l
262.330 217.579 l
263.887 216.833 l
264.706 224 l
258.406 238.995 l
253.825 243.593 l
f
100 242.374 m
99 239.638 l
99.829 238.921 l
100.693 241.593 l
100 242.374 l
f
67 241.394 m
67 239.196 l
67 241.394 l
f
70.424 241.452 m
70.339 240 l
70.424 241.452 l
f
82 241.600 m
82 241 l
82 241.600 l
f
217.290 241.433 m
214.806 240 l
211.800 240.491 l
212.618 238.566 l
216.597 237.898 l
218 239.981 l
217.290 241.433 l
f
232.494 242 m
232.462 241.981  232.511 242  232.494 242  c 
f
234.944 241.370 m
232.927 238.353 l
233.328 237.207 l
235.474 239.856 l
234.944 241.370 l
f
57.355 240.374 m
56.982 238 l
59.698 235 l
58.883 239 l
57.355 240.374 l
f
205.294 240.452 m
205.915 239.262 l
205.294 240.452 l
f
75.602 240.565 m
75.843 240.324 l
77.398 240.435 l
77 240.676 l
75.602 240.565 l
f
208.784 239.600 m
209 239 l
208.784 239.600 l
f
88.910 239 m
89 238.910 l
88.910 239 l
f
193 240 m
194 239 l
193 240 l
f
196.529 239.180 m
197.471 238.820 l
196.529 239.180 l
f
231 240 m
232 239 l
231 240 l
f
222 237 m
223 236 l
222 237 l
f
226 236.180 m
226.842 235.820 l
226 236.180 l
f
236 235.853 m
235.302 233.664 l
233 231.418 l
233.948 231 l
236.772 232 l
238.370 234 l
236 235.853 l
f
241.437 235.653 m
241.563 235.347 l
241.437 235.653 l
f
*U
0.000000 0.000000 0.000000 0.996078 k
*u
31 234 m
32 233 l
31 234 l
f
*U
0.000000 0.000000 0.000000 0.000000 k
*u
39 232.610 m
39.657 230 l
43.888 226.183 l
42.822 224.255 l
46.187 222.890 l
44.825 229.681 l
42.510 232.360 l
39 232.610 l
f
241.343 231.558 m
237.902 229 l
238.176 227.789 l
241.428 229.692 l
241.343 231.558 l
f
*U
0.000000 0.000000 0.000000 0.996078 k
*u
41.910 231 m
42 230.910 l
41.910 231 l
f
*U
0.000000 0.000000 0.000000 0.000000 k
*u
247.709 229.842 m
248.291 229 l
247.709 229.842 l
f
*U
0.000000 0.000000 0.000000 0.996078 k
*u
28 227.826 m
26.545 227.810  24.957 227  24.510 225.631  c 
24.239 224.802  24.564 223.828  24.345 222.968  c 
24.183 222.333  23.241 221.588  23.593 220.890  c 
24.531 219  28 218.240  29.946 218.357  c 
32.305 218.507  35.995 220.995  34.708 223.795  c 
33.757 225.865  30.237 227.851  28 227.826  c 
f
*U
0.000000 0.000000 0.000000 0.000000 k
*u
241.906 226.829 m
240.299 225.663 l
238.647 222.981 l
239.779 215 l
240.641 210.466 l
241.468 209.630 l
242.495 211 l
244.220 213.250 l
246.432 214.826 l
248 218.718 l
247 219.806 l
245 217.588 l
240.657 219.402 l
242 224.255 l
244 226.288 l
241.906 226.829 l
f
252.709 226.842 m
253.291 226 l
252.709 226.842 l
f
29.625 224.854 m
31.612 223 l
32.375 223 l
30.388 224.975 l
29.625 224.854 l
f
247.285 224.600 m
247.475 224 l
247.285 224.600 l
f
115 222.572 m
112.313 222.190  109.535 221.793  107 220.787  c 
98.196 217.292  91 210.211  85.346 202.961  c 
82.789 199.759  80 196.582  77.704 193.306  c 
76.779 192  75.745 191  76.573 189.684  c 
77.665 189.350 l
78.282 189.329 l
80.366 189.443  79.245 191.300  80 192.545  c 
80.724 193.374  81.635 193.975  82.299 194.746  c 
83.272 195.878  84 197.199  85.205 198.196  c 
85.993 198.896  86.804 199.372  87.853 199.541  c 
88.557 199.654  89.594 199.373  90.221 199.804  c 
90.897 200.268  90.647 201  90.736 201.840  c 
90.830 202.561  90.987 202.979  91.444 203.549  c 
91.883 204  92.566 204.446  93 204.965  c 
94.653 206.714  95.878 208.515  97.993 209.734  c 
99.457 210.578  101.238 210.760  102.660 211.640  c 
104.496 212.776  105.269 215  107.221 216.170  c 
107.811 216.413 l
108.691 216 l
109 215.567  109.398 214  110.238 214  c 
110.531 214  110.938 214.434  111.177 214.573  c 
112.326 215.244  113.192 216.442  114.469 216.849  c 
115.885 217.300  117.443 217  118.894 217.445  c 
120.244 217.716  121.712 218.671  123 218.528  c 
124.542 218.382  125.260 216.683  126.532 216.529  c 
127.249 216.443  127.590 217.271  128 217.675  c 
128.739 218.346  129.318 218.519  130.289 218.296  c 
131 218  131.869 217.603  132.612 217.251  c 
133.942 216.620  135.345 216  136.580 215.272  c 
138 214.310  139.263 212.996  140.614 211.886  c 
141.384 211.253  143.252 209.324  144.433 209.881  c 
145.296 210.289  144.596 211.650  144.252 212  c 
142.612 214.461  140.430 216.200  138 217.647  c 
131.285 221.648  122.775 223.676  115 222.572  c 
f
243.861 221.907 m
244.219 221 l
243.861 221.907 l
f
27.626 221.348 m
28.403 220.478 l
30.660 220 l
30.272 220.994 l
27.626 221.348 l
f
39.965 220.654 m
40.241 216.461 l
41.196 215.631 l
41.503 216.461 l
41.258 219.629 l
39.965 220.654 l
f
252.764 220.981 m
253.903 220 l
252.764 220.981 l
f
*U
0.000000 0.000000 0.000000 0.996078 k
*u
21.465 217.976 m
21.465 215.914 l
25.535 215.804 l
25.535 217.506 l
21.465 217.976 l
f
*U
0.000000 0.000000 0.000000 0.000000 k
*u
165.514 218.279 m
168 214.812 l
167.911 218 l
165.514 218.279 l
f
172 218 m
172 216.900 l
174.525 214.233 l
175.586 213.622 l
175.981 215 l
172 218 l
f
22.823 216.907 m
22.685 216.831  22.985 216.996  22.823 216.907  c 
f
157.823 217.177 m
157.680 217  157.965 217.320  157.823 217.177  c 
f
160.437 215.653 m
160.563 215.347 l
160.437 215.653 l
f
179.282 215.938 m
180.888 214.427 l
179.282 215.938 l
f
152.629 214.781 m
152.371 214 l
152.629 214.781 l
f
249.726 214.458 m
245.270 209.494 l
242.377 204.925 l
243.573 204.863 l
245 205 l
247.272 205.467 l
247.864 207 l
249.510 208.472 l
249.539 210.473 l
249.829 211.940 l
249.726 214.458 l
f
117.343 213.903 m
118.657 212.764 l
117.343 213.903 l
f
135 213.398 m
135.545 211.602 l
135 213.398 l
f
263.483 213.843 m
264.635 211 l
265.954 211 l
264.865 213.843 l
263.483 213.843 l
f
*U
0.000000 0.000000 0.000000 0.996078 k
*u
21.602 213.241 m
23.398 212.759 l
21.602 213.241 l
f
*U
0.000000 0.000000 0.000000 0.000000 k
*u
184.494 213 m
184.462 212.981  184.511 213  184.494 213  c 
f
30.278 212 m
31.722 211 l
30.278 212 l
f
35.437 211.653 m
35.563 211.347 l
35.437 211.653 l
f
39.660 211.659 m
38.893 209.313 l
39.545 208.341 l
40.402 210.687 l
39.660 211.659 l
f
163.437 211.653 m
163.563 211.347 l
163.437 211.653 l
f
253.996 212 m
252.529 209 l
253.665 207.616 l
254.351 208.372 l
253.996 212 l
f
186.910 211 m
187 210.910 l
186.910 211 l
f
189.868 208.781 m
189.792 206.968 l
192.780 203.765 l
199.421 196.514 l
204.685 191 l
208.276 187.377 l
209.783 186.627 l
209.538 188.207 l
206.850 192 l
194.964 205.555 l
191 208.512 l
189.868 208.781 l
f
101.321 208.326 m
101.674 207.723 l
103.394 208 l
102.701 208.626 l
101.321 208.326 l
f
115.437 207.653 m
115.563 207.347 l
115.437 207.653 l
f
256.823 208.177 m
256.680 208  256.965 208.320  256.823 208.177  c 
f
265 208 m
263.877 205.466 l
264.274 199 l
263.367 199.183 l
259.593 200.457 l
259.997 199 l
262 195.505 l
263 192.999 l
261.328 191.400 l
263.736 189 l
265.910 193 l
266.944 203.957 l
265 208 l
f
30.820 206.842 m
31.180 206 l
30.820 206.842 l
f
97.437 205.653 m
97.563 205.347 l
97.437 205.653 l
f
154 205.374 m
154.865 202.728 l
155.958 202.340 l
154.909 205 l
154 205.374 l
f
261.205 205.653 m
261.295 205.347 l
261.205 205.653 l
f
34.728 204.902 m
34.247 203.890 l
36.399 199.843 l
33.948 197.441 l
32.204 196.285 l
33.304 195.571 l
35.824 194.312 l
37.300 190.984 l
39 187.224 l
40.453 184.464 l
41.907 180.867 l
44 179.617 l
44.866 181.207 l
43.346 185 l
39.515 196 l
38.686 201.890 l
34.728 204.902 l
f
27.988 204.506 m
27.970 204.489  28 204.538  27.988 204.506  c 
f
151 202.903 m
151.910 201.764 l
151 202.903 l
f
160.205 202.653 m
160.295 202.347 l
160.205 202.653 l
f
249.534 203 m
244 202.380 l
241 201 l
239 195.995 l
235.757 189 l
232.729 184.592 l
233 183 l
235.291 184.719 l
239 187.855 l
241.407 189.170 l
240.791 190.903 l
241 194 l
245.992 198 l
249.370 199 l
249 199.603 l
247 200.857 l
247.612 201.424 l
249.534 203 l
f
163.478 201.718 m
164 200 l
163.478 201.718 l
f
168.576 199.370 m
167.312 195.657 l
168.255 194.921 l
169.732 197.853 l
168.576 199.370 l
f
254.709 199.925 m
255.291 199.275 l
254.709 199.925 l
f
23.627 199.552 m
24.376 198.876 l
28.248 197.514 l
27.543 199 l
23.627 199.552 l
f
153.436 198.767 m
150 198.780  149.927 194.313  150.343 192  c 
150.446 191.505  150.851 189.207  151.740 189.207  c 
152.351 189.207  152 190.916  152 191  c 
152 192.530  151.662 193.980  152.258 195.285  c 
152.690 196.229  153.748 196.644  154.272 197.523  c 
154.643 198  154 198.764  153.436 198.767  c 
f
*U
0.000000 0.000000 0.000000 0.996078 k
*u
242 200 m
243 199 l
242 200 l
f
*U
0.000000 0.000000 0.000000 0.000000 k
*u
139.437 197.653 m
139.563 197.347 l
139.437 197.653 l
f
157.988 198.506 m
157.970 198.489  158 198.538  157.988 198.506  c 
f
88.823 197.177 m
88.680 197  88.965 197.320  88.823 197.177  c 
f
147 196.452 m
147 195 l
147 196.452 l
f
85.494 196 m
85.462 195.981  85.511 196  85.494 196  c 
f
162.548 196.255 m
163.841 196 l
162.548 196.255 l
f
254.502 196.272 m
255 195.479 l
257.498 195.460 l
256.847 196.316 l
254.502 196.272 l
f
159 194.448 m
160.236 192.892 l
159 194.448 l
f
27.265 194 m
28.228 193.309 l
27.265 194 l
f
155.494 194 m
155.462 193.981  155.511 194  155.494 194  c 
f
13 192.922 m
12.484 189.941 l
13.415 184 l
15.264 181.873 l
18.184 182.332 l
19.833 182.481 l
18.767 181.198 l
16.751 178.846 l
17.372 178.862 l
18 179 l
19.872 179.573 l
21.968 180.918 l
22.343 184.616 l
19.867 185.503 l
15.707 189.966 l
19.654 192.718 l
17.812 193.736 l
13 192.922 l
f
140.885 193 m
136.292 193.458  132.364 189.572  127.835 189.231  c 
125.980 189  123.899 189  122 189.323  c 
119.565 189.688  117.299 190.568  114.725 190.428  c 
111.890 190.274  108.809 190  106 189.396  c 
103.909 188.918  101.926 187.984  99.830 187.394  c 
97.913 186.855  95.935 186.572  94 185.946  c 
91.828 185.215  89.917 183.997  87.830 183  c 
85.557 181.917  83 181.200  81 179.856  c 
78.508 178.297  76.461 176.254  74.429 174  c 
73 172.767  71.650 171.397  70.510 169.830  c 
69.221 168  68.457 166  67.455 164  c 
66.219 161.706  64.629 159.538  63.796 156.961  c 
63.169 155  62.951 152.980  62.501 151  c 
59.881 140 l
59.424 138  59 135.939  58.467 134  c 
57.505 131  55.384 129.313  54 126.715  c 
52.896 124.612  53 122.198  52.262 120  c 
51.306 117.547  49.463 115.843  47.654 114  c 
46 112.479  44.774 111  44 109  c 
43.739 108.331  43.711 107.342  44 106.711  c 
45 105.421  46.891 106.197  48 106.657  c 
51 107.889  54 109.520  57 111  c 
60.482 112.988  64 115  68 115.895  c 
69.640 116.197  71.330 116  72.959 116.448  c 
74.409 116.791  75.597 117.654  76.995 118  c 
77.987 118.391  78.960 117.774  79.897 118.289  c 
81.178 118.991  82 120.373  83.260 121.310  c 
85.496 123.203  87.779 124.886  89.829 127  c 
90.965 128.170  92 129.420  93.195 130.545  c 
95 132.299  96.919 133.857  98.272 136  c 
100.348 139.426  101.231 143.240  102.285 147  c 
103.321 150.695  104.582 154.245  105.424 158  c 
106 160.969  106.814 163.912  107.191 166.937  c 
107.272 167.579  107.595 169  106.976 169.654  c 
106.306 170.218  105.198 169  104.822 168.627  c 
102.920 166.676  101.320 164.471  99 162.857  c 
98.863 162.694  96.603 161  96.585 162.197  c 
96.574 162.867  97 163.671  97.471 164.208  c 
98.207 165.491  99 166.744  99.809 167.989  c 
102.432 172  105.702 176.382  110 178.737  c 
111.948 179.734  114 180.204  115.996 180.862  c 
117.838 181.472  119.593 182.306  121.427 182.924  c 
121.931 183  122.655 183.295  123 182.851  c 
124.265 181.682  122.990 179  122.427 177.998  c 
121 175.180  118.907 172.512  116.987 170  c 
116 168.832  115 167  113.522 166.592  c 
112.345 166  113 168  113.184 168.413  c 
113.709 170.701  113.998 173.350  113.435 175.677  c 
112.839 178  110.976 176.745  109.917 175.350  c 
109.491 174.721 l
109.211 174 l
109.250 173.424 l
109.636 173.291  110.631 173.424  110.667 172.871  c 
110.747 171.655  109.824 170  109.549 168.991  c 
109 167.339  109 165.680  108.924 164  c 
108.485 159.596  107 155.367  106.439 151  c 
105.972 148  105.996 145  106 142  c 
106 140  105.899 137.966  106.224 136  c 
106.864 132  109.367 128.891  110 125  c 
110.205 124.394  110.730 122  109.867 121.631  c 
109 121.917 l
108.332 122.808  107.792 123.806  107.245 124.854  c 
105.401 128.391  104.189 132  103.897 135.995  c 
103.735 139.534 l
103.446 140.369 l
102.954 140.676  102.224 138.986  102 138.793  c 
101.296 137.205  100.559 135.570  99.687 134  c 
98 131  96 128.471  93.536 126  c 
90.351 123  86.874 120.836  87 115.985  c 
87.266 113.209  88.465 110.697  88.988 108  c 
89.502 105.346  89 102.549  90.174 100  c 
90.740 98.737  91.597 97.649  92.557 96.640  c 
93.190 95.974  94 95.412  94.471 94.545  c 
94.848 93.697  94.628 92.705  94.781 91.816  c 
94.943 90.872  95.234 90  95.792 89.248  c 
97.663 86.607  101.243 85.222  103.792 83.334  c 
104.594 82.739  105.656 81.965  106 81  c 
106.472 80.209  105.276 80.698  105 80.830  c 
103.892 81.484  102.915 82.396  101.654 82.845  c 
101 83  100 82.739  100.167 81.926  c 
100.238 81.208  100.834 80.683  101.357 80.266  c 
104.506 77.908 l
105.216 77.330  105.871 76.524  106.861 76.524  c 
108.253 76.524  109.895 78.334  111 76.458  c 
111.801 75  110.821 73.778  110.317 72.572  c 
109.705 71  109 69.759  109.376 68  c 
110 64.643  114.245 63.771  116.463 61.526  c 
118.900 59  119.504 56.212  118 53  c 
117.000 50.994  114.802 48.944  115.360 46.388  c 
115.695 44.858  117.682 44.445  118.710 43.462  c 
119.655 42.558  120.838 40.192  122.369 40.207  c 
123.600 40.219  122.511 42.607  122.346 43  c 
121.658 44.855  119.913 46.780  119.853 48.741  c 
119.820 49.801  120.710 51  121 51.995  c 
121.427 52.582  122 54.945  123 54.944  c 
123.790 54.944  123.609 53.227  123.587 52.883  c 
123.440 50.590  123 48.303  123.347 46  c 
124 40.346  131.314 36  128.802 30.174  c 
128.241 28.845  126.945 27.861  125.950 26.884  c 
124.692 25.650  123.504 24.638  122.712 23  c 
122.584 22.774  122.322 21.797  122.801 21.616  c 
123.563 21.328  124.785 22.726  125.228 23  c 
127.483 25  130.284 27  131.397 30  c 
132.419 32.704  132 36  130.926 38.715  c 
129.789 41.220  127.954 43.220  127.409 46  c 
126.808 49  127.673 52.754  130.822 54  c 
132.611 54.830  132.267 53.389  131.758 52.312  c 
130.729 50  129.773 48.579  129.858 46  c 
129.881 45.394  130.175 43.941  130.929 43.631  c 
131.441 43.421  131.709 44  131.845 44.465  c 
132.309 45.525  132.540 46.658  133 47.709  c 
133 47.919  134 49.458  134.475 48.793  c 
134.927 48  134.433 46.671  134.347 45.961  c 
134 43.693  133.813 41.336  134.224 39  c 
134.358 38.318  134.708 36.207  135.826 36.207  c 
137 36.207  136.660 39.352  136.647 40  c 
136.582 43.486  137 46.505  139.704 48.988  c 
140.423 49.656  141.865 50.911  142.979 50.613  c 
144 50.332  141.963 48.548  141.802 48.372  c 
139.803 46.193  137.958 44.190  138.478 41  c 
139.333 35.752  144.872 33.627  146.633 28.987  c 
147 27.785  147.436 24.774  145.976 23.978  c 
145.636 23.792  145.222 24.703  144.670 24.497  c 
143.545 24  141.809 21.697  142.608 20.475  c 
142.877 20  143.879 20.284  144.305 19.895  c 
144.911 19.343  145.214 17.836  146 17.622  c 
146.892 17.418  147.385 18.646  147.660 19.174  c 
148.946 21.639  150.286 23.665  152.213 25.690  c 
153 26.653  154 27.592  155.188 28.326  c 
160 31.483  167.740 34  168 41  c 
168.223 43.189  166.996 45  166.248 46.961  c 
165.913 47.839  165.233 49.209  165.720 50  c 
165.925 50.548  166.420 50  166.552 50.730  c 
166.670 51.301  166 52  165.530 52  c 
163.422 52.370  163.402 49.427  163.367 48  c 
163.361 47.882  163.696 46  163 46  c 
162.658 46  162.283 46.991  162.181 47.291  c 
161.748 48.567  161.750 50.173  160.917 51.280  c 
159.506 53  156 53.335  154 53.414  c 
153.735 53.425  151.474 53  151.770 53.957  c 
152 54.823  153.389 55.554  154 55.990  c 
155.971 57  157.882 58  160 58.702  c 
162.605 59.429  165.356 59.646  168 60.215  c 
170.668 60.789  173.271 61.651  176 61.897  c 
179.635 62.223  183.354 61.976  187 62  c 
188.889 62  191 61.828  192.852 62.603  c 
196.308 64  196.463 68.799  195 71.856  c 
193.680 75  190.173 75.675  187 75.910  c 
183.617 76  180.259 75.907  177 74.957  c 
173.656 73.981  170.463 72.309  167 71.769  c 
158.541 70.452  151.527 76.420  146 82  c 
144 83.914  142.331 85.890  140.669 88  c 
139 89.926  137.696 91.928  136.384 94  c 
134.871 96.391  133.941 99.224  132.199 101.451  c 
131.788 101.977  129.948 103  130 103.897  c 
130 104.403  130.957 104.348  131.253 104.307  c 
132 104.185  132.914 103.786  133.630 103.279  c 
136 101.536  137.220 98.677  138.667 96.167  c 
138.949 95.679  139.619 94.360  140.410 94.631  c 
141.190 94.899  141.533 96.443  141.795 97  c 
142.601 99  143.362 101  144.445 102.883  c 
144.643 103.216  145.931 105.616  146.637 104.793  c 
147 104.339  146.839 103.379  146.752 102.883  c 
146.511 101.518  145.921 100.276  145.413 99  c 
143.920 95.253  142 90.866  144.742 87  c 
145.896 85.511  147.642 84.972  149 83.700  c 
150.320 82.588  150.699 80.882  151.853 79.694  c 
153.226 78.282  155 77.676  157 77.329  c 
159.302 76.908  161.643 77  163.961 77  c 
164.736 77  166 77.422  166.799 76.961  c 
167.444 76.544  166 75.567  165.804 75.304  c 
165.577 75  165.430 74.744  165.920 74.708  c 
167.573 74.586  169.486 75.612  171 76  c 
174.591 77.406  178.203 79.396  182 79.867  c 
184.641 80.195  187.346 79.923  190 80  c 
192.357 80  194.660 80.567  196.999 80.835  c 
198.920 81  201.797 80.842  203 82.600  c 
204.695 84.723  202.499 86.909  200.969 88.231  c 
197.828 90.946  195 91.656  191 90.546  c 
190.337 90.334  187.973 89.262  187.727 90.715  c 
187.549 91.765  188.469 92.979  189 93.691  c 
191 95.805  193.300 97  195.806 98.424  c 
197.256 99.183  198.683 99.988  200.205 100.596  c 
203.801 102  208.529 103.332  210.258 107.210  c 
210.925 108.706  210.933 110.398  210.944 112  c 
210.954 113.333  210.776 114.706  210.468 116  c 
210.229 117  209.928 118  209.467 118.980  c 
208.770 120.377  207.998 122  206.468 122.712  c 
204.979 123.360  203.433 122.638  201.985 122.271  c 
199.637 121.676  197.470 121  195.326 122.643  c 
194 123.499  193.184 124.812  192.349 126  c 
190.366 128.885  188.780 131.816  187.380 135  c 
184.850 140.754  181.574 145.911  177.922 151  c 
174.790 155.392  170.847 160.287  171.343 166  c 
171.670 169.761  173 174.755  175.644 177.576  c 
176.443 178.437  178.584 180.293  179.917 179.439  c 
180.748 178.908  180.267 177.575  179.973 176.902  c 
179.314 175.395  177.534 173.365  177.917 171.604  c 
178.317 169.766  181.402 170  182.752 169.835  c 
183.482 169.672  184.391 169.222  184.477 168.379  c 
184.583 167.339  182.851 168.173  182.511 168.250  c 
179.628 168.903  177.595 168  175.827 165.715  c 
175.327 165  174.861 163.817  175.371 163  c 
176.307 161.536  179.411 162  180.831 162  c 
182.455 162  184.936 161.735  186.387 162.628  c 
187.575 163.360  187.709 164.818  187.972 166  c 
188.447 168.298  189 170.715  188.541 173  c 
187.533 177.992  183 181  180.657 185  c 
179.903 186.412  180.715 186.399  180.907 187.461  c 
180.264 188.304 l
179.627 188.758 l
175.467 191  170.689 188.463  167 186.325  c 
165.393 185.374  163.665 184.386  162.942 182.546  c 
162.620 180.949 l
162.569 180 l
162.564 179.448 l
162.765 178.630 l
163.824 179  164 180.520  164.799 181.388  c 
165.925 182.650  166.585 181  166.492 179.902  c 
166.245 176.839  162.633 174.354  159.631 174.765  c 
158 174.970  160 176.758  160.291 177.381  c 
160.632 178.223  160 178.981  159.547 179.551  c 
156.482 182.678  151.647 182.969  148.380 185.702  c 
145.777 187.879  144.720 192.909  140.885 193  c 
f
249.698 192.764 m
249.662 189.485 l
252.959 190.733 l
257.172 190.755 l
256 192.451 l
249.698 192.764 l
f
148.205 191.653 m
148.295 191.347 l
148.205 191.653 l
f
153.743 191.370 m
153.584 189.863 l
155.801 186.513 l
157.272 186.533 l
157.198 187.748 l
154.989 190.578 l
153.743 191.370 l
f
169.988 192.506 m
169.970 192.489  170 192.538  169.988 192.506  c 
f
157.346 190.710 m
159.167 188.809 l
164.824 189.748 l
164.338 190.876 l
159.167 190.820 l
157.346 190.710 l
f
25 189.807 m
26.637 187.274 l
27.443 189.588 l
25 189.807 l
f
33.747 189.664 m
34.254 186.862 l
35 186.631 l
34.515 189.343 l
33.747 189.664 l
f
169.823 189.907 m
169.685 189.831  169.985 189.996  169.823 189.907  c 
f
20.488 188.927 m
21.450 187.218 l
20.488 188.927 l
f
31 187.452 m
31 186 l
31 187.452 l
f
36 189 m
37 188 l
36 189 l
f
184.657 187.752 m
183.424 186.399  184.507 184.287  185.238 182.995  c 
187 179.608  190 177  190.758 173  c 
191.267 169.667  189.924 166.416  190.168 163  c 
190.399 159.944  192 157.252  191.927 154  c 
191.885 152.730  191.657 151.511  191.291 150.285  c 
190.765 148.525  189.820 146.570  190.823 144.789  c 
191.384 143.792  192.837 143.310  193.630 142.482  c 
194.773 141.292  195.699 139.926  196.903 138.784  c 
200 135.819  203.799 133.999  207.985 133  c 
210.962 132.519  213.943 131.182  217 131.258  c 
217.536 131.272  219.631 131.899  220 131.336  c 
220.312 130.919  219 130.194  219.593 129.733  c 
220 129.211  221.452 129.562  222 129.615  c 
224 129.780  225.921 129.731  227.887 129.720  c 
228.853 129.715  230 129.760  230.607 130.693  c 
231.415 132  230.598 133.755  230 135  c 
229.512 136.372  228.738 137.655  228 139  c 
227.386 140.596  226.790 142.287  225.951 143.832  c 
225 145.355  223.834 146.343  222.876 147.740  c 
222 148.999  221.605 150.496  220.898 151.839  c 
219.952 153.637  218.739 155.265  217.832 157  c 
213.461 165.876  209.957 176  201.826 182.251  c 
198 185  193.714 187  189 187.773  c 
188 187.932  185.510 188.688  184.657 187.752  c 
f
253 187.657 m
253.981 186.343 l
253 187.657 l
f
72 186.842 m
70.829 184 l
71.645 182.573 l
72.998 184.519 l
76 185.907 l
75.627 187.228 l
72 186.842 l
f
148.988 187.506 m
148.970 187.489  149 187.538  148.988 187.506  c 
f
259 187 m
259.600 186.784 l
259 187 l
f
262.950 185.884 m
263.216 185.400 l
262.950 185.884 l
f
27 183.981 m
27 182.176 l
27 183.981 l
f
251 183.452 m
251.826 182.262 l
251 183.452 l
f
258.612 183.764 m
260.501 180.897 l
261.995 180.816 l
260 183.843 l
258.612 183.764 l
f
37.988 183.506 m
37.970 183.489  38 183.538  37.988 183.506  c 
f
67.988 183.506 m
67.970 183.489  68 183.538  67.988 183.506  c 
f
157.400 183.335 m
157.949 183 l
157.400 183.335 l
f
207.631 182.758 m
208.407 179.863 l
212.268 177.199 l
214.431 176.759 l
213.799 178.596 l
209.715 181.943 l
207.631 182.758 l
f
213.631 183 m
213.921 182.369 l
216 181.185 l
221 176.897 l
221.782 173.465 l
222.966 172.921 l
224 178 l
225.942 179.343 l
227.370 180.413 l
224 180.959 l
217 182.677 l
213.631 183 l
f
236.988 183.506 m
236.970 183.489  237 183.538  236.988 183.506  c 
f
*U
0.000000 0.000000 0.000000 0.996078 k
*u
146 182 m
141.647 181.415 l
140.921 180 l
142.333 178.480 l
146.682 175.402 l
152.280 165.985 l
155.228 158 l
156.577 155.627 l
158.196 157 l
157.339 162 l
155.254 167.812 l
153.657 172.688 l
152.700 175 l
149.785 177.464 l
146 182 l
f
*U
0.000000 0.000000 0.000000 0.000000 k
*u
31.854 180.463 m
29.252 178 l
30.182 177 l
32.383 179 l
31.854 180.463 l
f
236.427 180.460 m
236 179.296 l
238.283 177.586 l
238.283 179 l
236.427 180.460 l
f
247.289 180.996 m
248 180.174 l
247.289 180.996 l
f
255.995 180.784 m
254 176.460 l
256.341 176 l
258 175.464 l
259 177 l
255.995 180.784 l
f
62.806 179.880 m
58.996 178.510 l
55 177.400 l
51.346 176.745 l
51.748 175.346 l
54.810 174 l
62 176.583 l
65 177.355 l
62.806 179.880 l
f
67.823 180.177 m
67.680 180  67.965 180.320  67.823 180.177  c 
f
40.205 178.653 m
40.295 178.347 l
40.205 178.653 l
f
46.590 178.408 m
43.442 175 l
44 173.907 l
46.778 176.853 l
46.590 178.408 l
f
*U
0.000000 0.000000 0.000000 0.996078 k
*u
210 180 m
211 179 l
210 180 l
f
*U
0.000000 0.000000 0.000000 0.000000 k
*u
25.347 177.476 m
23.531 176.629 l
20 176.727 l
19.606 174.591 l
19 174.754 l
16.829 175.664 l
18 171 l
20.305 166.230 l
22.409 163.599 l
25.438 161.211 l
30 163.370 l
35.377 166 l
37.694 168.276 l
37.289 169.274 l
33.575 168 l
26.724 166.508 l
23.621 167 l
24.206 169.831 l
27.909 172.451 l
28.834 173.742 l
25.863 174 l
25.347 177.476 l
f
217.784 177.884 m
217.925 177.400 l
217.784 177.884 l
f
243.664 176.448 m
244.497 174.892 l
243.664 176.448 l
f
250 177.180 m
250.842 176.820 l
250 177.180 l
f
211.823 174.907 m
211.685 174.831  211.985 174.996  211.823 174.907  c 
f
*U
0.000000 0.000000 0.000000 0.996078 k
*u
21 175 m
22 174 l
21 175 l
f
*U
0.000000 0.000000 0.000000 0.000000 k
*u
226.324 173.398 m
226.676 171.602 l
226.324 173.398 l
f
252 174 m
252.600 173.784 l
252 174 l
f
37.437 172.653 m
37.563 172.347 l
37.437 172.653 l
f
58.494 173 m
58.462 172.981  58.511 173  58.494 173  c 
f
214.880 172.826 m
214.685 169.356 l
215.850 168.256 l
216 169 l
216 172.428 l
214.880 172.826 l
f
238.355 172.369 m
237.863 169.922 l
238.900 164 l
239.896 161.921 l
240.386 161.630 l
240.571 164.388 l
240.754 164.945 l
241.319 163.709 l
241.364 160.464 l
241 159.916 l
239.789 159.715 l
238.443 160.431 l
237.434 159 l
236.946 160.183 l
235.285 162.654 l
233.825 159.273 l
233.309 158 l
232.951 159.296 l
232.872 164.793 l
232 166.369 l
231.674 163.922 l
231 159 l
230.371 157.167 l
229.309 157.867 l
229 161.288 l
227.772 161.248 l
226.353 155 l
229 154 l
237.999 155.750 l
242.664 157.980 l
242.624 165 l
240.847 168.977 l
239.544 171.534 l
238.355 172.369 l
f
241.474 172.653 m
241.526 172.347 l
241.474 172.653 l
f
255.904 172.471 m
256.296 171.529 l
255.904 172.471 l
f
*U
0.000000 0.000000 0.000000 0.996078 k
*u
22 172.213 m
21.513 172  21.334 171.581  22 171.787  c 
22.487 171.937  22.666 172.419  22 172.213  c 
f
*U
0.000000 0.000000 0.000000 0.000000 k
*u
31.437 171.653 m
31.563 171.347 l
31.437 171.653 l
f
28 172 m
29 171 l
28 172 l
f
51.933 170.679 m
52.661 168.606 l
51.933 170.679 l
f
*U
0.000000 0.000000 0.000000 0.996078 k
*u
135.942 171.513 m
132 171.271  126.376 170.312  123.627 167.200  c 
122 165.508  122 163  121.681 160.996  c 
121.206 158.598  120.171 155.851  121 153.425  c 
122.998 147.852  129.820 146.420  135 146  c 
136.898 145.978  139 145.947  140.853 146.742  c 
143 147.723  143.823 149.627  144.237 151.848  c 
144.290 152  144.513 153.789  143.852 153.793  c 
142.981 153.798  141.949 151.612  141.451 151  c 
139.656 149.186  137.658 148  135 148.244  c 
132.222 148.354  129.764 149.628  127.463 151  c 
126.826 151.464  125.963 151.949  125.466 152.529  c 
124 154  127 156  128.522 156.258  c 
130.364 156.485  130.289 153.396  131 152.309  c 
132.565 150  135.603 149.731  137.848 151  c 
139.387 151.925  140 153.266  140.366 154.960  c 
140.500 155.731  139.967 157.671  140.888 158  c 
141.765 158.554  143.261 157.534  144 157.305  c 
144.452 157.204  145.244 157  145.448 157.542  c 
145.275 158.617 l
144.695 159.782  143.951 160.856  143.406 162  c 
142 165  141.599 169.532  138.454 171.307  c 
137.747 171.707  136.702 171.560  135.942 171.513  c 
f
*U
0.000000 0.000000 0.000000 0.000000 k
*u
231.371 170.581 m
231.629 169.819 l
231.371 170.581 l
f
244.494 171 m
244.462 170.981  244.511 171  244.494 171  c 
f
247.738 170.378 m
246.942 168 l
245 167.794 l
244.255 166.858 l
245.354 164.870 l
246.520 162.657 l
247.418 162.251 l
249 167.991 l
247.738 170.378 l
f
251.562 171 m
253.451 168.693 l
254.668 168.602 l
252.728 171.303 l
251.562 171 l
f
58.437 168.653 m
58.563 168.347 l
58.437 168.653 l
f
132.978 169.431 m
125.662 165.546 l
125.662 162 l
128.980 161.533 l
134.285 162.232 l
138.642 162.572 l
138.620 167 l
132.978 169.431 l
f
174.988 169.506 m
174.970 169.489  175 169.538  174.988 169.506  c 
f
25.437 168.190 m
24.999 167.933  25.963 168.498  25.437 168.190  c 
f
235.549 167.452 m
235.830 166 l
235.549 167.452 l
f
251 167.715 m
251.984 165.546 l
251 167.715 l
f
42.437 165.858 m
42.563 165.642 l
42.437 165.858 l
f
218.562 166 m
218.949 164 l
219.283 162.335 l
219.923 161.538 l
220.570 162.763 l
218.562 166 l
f
224 165.875 m
223.992 164.343 l
226 164.562 l
224 165.875 l
f
37.823 165.177 m
37.680 165  37.965 165.320  37.823 165.177  c 
f
52.437 164.653 m
52.563 164.347 l
52.437 164.653 l
f
*U
0.000000 0.000000 0.000000 0.996078 k
*u
25.529 164.380 m
26.471 164 l
25.529 164.380 l
f
*U
0.000000 0.000000 0.000000 0.000000 k
*u
64 163.907 m
63.933 163.819  64.291 163.978  64 163.907  c 
f
42.410 162.772 m
41.744 162.551  41.207 161.563  40.461 161.613  c 
39.707 161.665  39.510 162.898  38.491 162.269  c 
36.664 161  38 158.467  37.242 156.845  c 
36.481 155.259  34.758 154.276  34 152.600  c 
33.304 150.366  35.787 147.504  38.196 147.988  c 
39 148.183  39 149.390  39.525 150  c 
40.196 151  41.312 151.386  41.540 152.843  c 
41.799 154.496  40.387 155.792  40.840 157.394  c 
41.245 158.824  42.376 159.905  42.941 161.258  c 
43.196 161.869  43.533 163  42.410 162.772  c 
f
55.335 162.369 m
54.445 159.922 l
52 152 l
51.924 148.630 l
53.732 150.442 l
54.642 150.407 l
50 145.777 l
48.934 146.951 l
47.672 147.401 l
46.724 146.931 l
46.371 146.486 l
48.188 143.723 l
54.826 143 l
57.932 143.719 l
59.566 147 l
59.985 155.976 l
59.576 159.369 l
59 157.793 l
58 152.296 l
57.464 151 l
57 153 l
56.448 160.793 l
55.335 162.369 l
f
*U
0.000000 0.000000 0.000000 0.996078 k
*u
25 163 m
26 162 l
25 163 l
f
*U
0.000000 0.000000 0.000000 0.000000 k
*u
32 163 m
33 162 l
32 163 l
f
49.182 161.384 m
47.419 159.208 l
45.621 153 l
47.849 150.921 l
49.919 153 l
50.297 159 l
49.182 161.384 l
f
61.950 160.884 m
62.216 160.400 l
61.950 160.884 l
f
*U
0.000000 0.000000 0.000000 0.996078 k
*u
235.435 160.398 m
235.324 158.843 l
235.565 158.602 l
235.676 160 l
235.435 160.398 l
f
*U
0.000000 0.000000 0.000000 0.000000 k
*u
28 159.823 m
26.843 159.270 l
26.843 158.684 l
28 159.224 l
28 159.823 l
f
34.476 159.942 m
33.363 159.427 l
29.618 156.711 l
31 154 l
35 157.213 l
34.476 159.942 l
f
223 159.370 m
222.363 156.353 l
223 155.207 l
223.772 158.554 l
223 159.370 l
f
176.325 159 m
176.688 158 l
178.675 158.481 l
176.325 159 l
f
42.910 158 m
43 157.910 l
42.910 158 l
f
220.494 158 m
220.462 157.981  220.511 158  220.494 158  c 
f
135.300 156.674 m
133.616 155.971  133.651 152.933  135.826 153.747  c 
137.621 154.419  137.345 157.528  135.300 156.674  c 
f
182 156 m
183.884 154.937 l
182 156 l
f
187.729 155.659 m
185.877 153.254 l
183.850 151.549 l
181.627 150.310 l
183.203 149.399 l
187.651 150.578 l
189.977 153.286 l
187.729 155.659 l
f
*U
0.000000 0.000000 0.000000 0.996078 k
*u
48 155.177 m
48 155  48.169 155.315  48 155.177  c 
f
37.456 153.452 m
36.749 152 l
37.456 153.452 l
f
47.988 152.506 m
47.970 152.489  48 152.538  47.988 152.506  c 
f
*U
0.000000 0.000000 0.000000 0.000000 k
*u
43.700 148.664 m
43.300 146.186 l
43.700 148.664 l
f
*U
0.000000 0.000000 0.000000 0.996078 k
*u
56.494 146 m
56.462 145.981  56.511 146  56.494 146  c 
f
*U
0.000000 0.000000 0.000000 0.000000 k
*u
185.772 144.824 m
185.777 141.941 l
188.944 135 l
191.192 132.631 l
191.760 135 l
188.642 143.663 l
185.772 144.824 l
f
*U
0.000000 0.000000 0.000000 0.996078 k
*u
154 129.531 m
149.491 128.677  146 126.423  144.514 121.996  c 
144 120.754  144 119.302  144 118  c 
144 115.981  144.268 114  144.989 112.167  c 
145.211 111.586  145.889 110.207  146.687 110.207  c 
147.475 110.207  147 111.852  146.971 112.167  c 
146.424 114.464  145.532 116.590  145.989 119  c 
147.192 125.346  153.985 128.994  160 127.359  c 
163 126.513  166.177 124.756  168.700 122.784  c 
170.310 121.526  171.715 120  173.370 118.833  c 
175.646 117.175  178.200 116.228  180.579 114.787  c 
182.210 113.799  183.390 112.541  184.675 111  c 
185 110.654  185.708 109.909  186.511 110.238  c 
187.795 110.763  187.841 112.478  187.302 113.509  c 
186 115.865  183.251 117.736  181 119  c 
178.251 120.911  175.167 122  172.280 123.725  c 
170.464 124.761  168.802 126  166.961 127  c 
162.868 129.269  158.648 130.411  154 129.531  c 
f
150.228 122.254 m
147.252 117 l
149.225 114.346 l
152.651 119 l
155.876 119.706 l
157.655 120 l
155.833 122.273 l
150.228 122.254 l
f
158 116 m
155.300 115  155 111.829  157.438 110.179  c 
159.203 108.951  161.222 109.181  163 109.735  c 
164 109.998  164.599 110.463  165 109.383  c 
166 107.381  165.799 105.183  165.503 103  c 
165.428 102.540  164.939 100.966  165.718 100.631  c 
166.232 100.410  166.861 101  167 101.466  c 
167.758 102.830  167.885 104.216  168 105.704  c 
168 105.792  168.279 106.945  168.591 106.944  c 
168.987 106.944  169.287 105  169.354 104.883  c 
170 102.907  170.735 101  172 99.466  c 
172.305 99  172.997 98.416  173.540 98.631  c 
174 98.841  174 99.809  173.937 100.207  c 
173.599 102.193  172.802 104  172 105.961  c 
170.269 110.234  167.624 114.345  162.981 115.760  c 
161.480 116.218  159.693 116.588  158 116  c 
f
*U
0.000000 0.000000 0.000000 0.000000 k
*u
66.456 113.452 m
65.749 112 l
66.456 113.452 l
f
161.262 113.961 m
162.452 113.201 l
161.262 113.961 l
f
*U
0.000000 0.000000 0.000000 0.996078 k
*u
123.167 110 m
121.346 107.882 l
122.377 107.487 l
123.167 107.508 l
127.980 108.644 l
131.248 109.440 l
129.833 110.870 l
123.167 110 l
f
*U
0.000000 0.000000 0.000000 0.000000 k
*u
87.494 100 m
87.462 99.981  87.511 100  87.494 100  c 
f
*U
0.000000 0.000000 0.000000 0.996078 k
*u
166.437 96.653 m
166.563 96.347 l
166.437 96.653 l
f
*U
0.000000 0.000000 0.000000 0.000000 k
*u
92.482 91.374 m
92.541 88.638 l
93.454 87.921 l
93.228 90.593 l
92.482 91.374 l
f
*U
0.000000 0.000000 0.000000 0.996078 k
*u
170 78 m
171 77 l
170 78 l
f
*U
0.000000 0.000000 0.000000 0.000000 k
*u
109 75.669 m
104.796 70 l
105.642 66.921 l
106.945 69 l
108.550 72.695 l
109.927 75.418 l
109 75.669 l
f
161.347 74.526 m
161.653 74.474 l
161.347 74.526 l
f
171.924 53.539 m
170 53.448  169 51.437  168.591 49.920  c 
168 48  168.423 46.353  169 44.579  c 
169.741 42.648  170.967 40.710  170.400 38.579  c 
169.865 36.563  168 34.875  166.713 33.461  c 
164 30.828  160.972 28.687  158.385 25.955  c 
157.563 25  156.348 24  155.894 23  c 
155.295 21.505  155.801 19.529  156 17.995  c 
156.221 16.366  156.473 14.775  156.973 13.207  c 
157 12.745  157.429 11.879  157.921 11.631  c 
158.390 11.396  158.446 12.282  158.444 12.466  c 
158.428 13.991  158 15.477  157.993 17  c 
157.894 22.554  162 26.886  166.237 30  c 
168.326 31.804  170 32.703  171.462 35  c 
172.798 37.638  173.464 40  173.880 42.883  c 
173.923 43  173.973 44.944  174.545 44.944  c 
175 44.944  175.317 43.211  175.312 42.883  c 
175.271 40.458  174.231 38.630  173.525 36.377  c 
173.298 35.650  173.454 34.926  174.356 35.346  c 
175 35.717  175.937 36.468  176.451 37.167  c 
177 38  177.792 38.956  178 40  c 
179.239 43.350  178.374 46  176.637 48.995  c 
175.688 50.606  174.176 53.651  171.924 53.539  c 
f
*U
0.000000 0.000000 0.000000 0.996078 k
*u
95.175 42.481 m
96.235 40 l
98 38 l
96.699 31 l
97.692 29.256 l
99.776 32.306 l
100.778 39.454 l
98.790 41.208 l
95.175 42.481 l
f
*U
0.000000 0.000000 0.000000 0.000000 k
*u
138.661 33.695 m
138.844 32.181 l
141.787 28.778 l
142.837 27.618 l
143.312 29 l
140.674 33 l
138.661 33.695 l
f
145.494 29 m
145.462 28.981  145.511 29  145.494 29  c 
f
*U
0.000000 0.000000 0.000000 0.996078 k
*u
172.304 27.972 m
170.719 27  169.671 25.494  168.640 24  c 
167.377 22.215  165.685 20  165.357 17.830  c 
164.549 12.305  170.596 8.972  175.170 7.969  c 
176.417 7.696  177.743 7.928  179 7.876  c 
181 7.792  182.854 7.234  184.833 6.853  c 
185.344 6.755  186.207 6.592  186.654 7  c 
187.271 7.583  185.995 8.335  185.623 8.456  c 
183.888 9  182 8.955  180.296 9.170  c 
180 9.199  179 9.265  179 9.634  c 
179.372 10 l
179.910 10.613  180.441 11  180.909 11.579  c 
181.979 12.824  182.663 14.575  184.188 15.353  c 
185.564 16  187.785 15.418  188.760 16.901  c 
189.673 18.289  187.961 19.317  187.793 20.572  c 
187.705 21.232  188.717 22.320  187.927 22.837  c 
186.994 23.448  185.764 22.373  184.809 23  c 
183.541 24  183.461 26.233  182.262 27.398  c 
179.990 29.607  174.913 29.514  172.304 27.972  c 
f
*U
0.000000 0.000000 0.000000 0.000000 k
*u
156 26.907 m
155.933 26.819  156.291 26.978  156 26.907  c 
f
175 27.215 m
172.338 23.239 l
174.239 21.924 l
175.874 20.274 l
178.840 21 l
181 19.912 l
181.663 24.776 l
175 27.215 l
f
140 25 m
141 24 l
140 25 l
f
153 23.369 m
151.588 19.201 l
152.309 17.631 l
153.316 21.799 l
153 23.369 l
f
154.425 19.370 m
154.184 16.442 l
154.575 15.630 l
154.816 18.558 l
154.425 19.370 l
f
170 19.600 m
170 19 l
170 19.600 l
f
173.205 18.653 m
173.295 18.347 l
173.205 18.653 l
f
166.474 17.653 m
166.526 17.347 l
166.474 17.653 l
f
186 18 m
187 17 l
186 18 l
f
177.965 14.581 m
178.435 13.819 l
177.965 14.581 l
f
169.176 13.979 m
170.332 12.652 l
174 13 l
173.539 14 l
169.176 13.979 l
f
*U
%%Trailer
%%EOF
